/* XPM */
static const char * Close_xpm[] = {
"24 24 153 2",
"  	c #D1D5D1",
". 	c #5C5224",
"+ 	c #646933",
"@ 	c #CEEBB7",
"# 	c #EAEBD3",
"$ 	c #EAEBD1",
"% 	c #EAEBCF",
"& 	c #EAEBCE",
"* 	c #EAEBCC",
"= 	c #EAEBC9",
"- 	c #EAEBC7",
"; 	c #EAEBC4",
"> 	c #CEEBA9",
", 	c #636933",
"' 	c #CEEBBA",
") 	c #EAEBD2",
"! 	c #EAEB9F",
"~ 	c #EAEB95",
"{ 	c #EAEB91",
"] 	c #EAEB8D",
"^ 	c #EAEB87",
"/ 	c #EAE984",
"( 	c #EAE47F",
"_ 	c #EAE682",
": 	c #EAEBBE",
"< 	c #CEEBA8",
"[ 	c #CEEBBB",
"} 	c #EAEBD4",
"| 	c #EAEB98",
"1 	c #EAE980",
"2 	c #EAE57C",
"3 	c #EAE278",
"4 	c #EADD72",
"5 	c #EAD76C",
"6 	c #EAD166",
"7 	c #EACE62",
"8 	c #EAC75B",
"9 	c #EAD66F",
"0 	c #EAEBBB",
"a 	c #CEEBA6",
"b 	c #CEEBBC",
"c 	c #EAEBD7",
"d 	c #EAEB9C",
"e 	c #CDCE6A",
"f 	c #EAE67C",
"g 	c #EAD76E",
"h 	c #CDA94B",
"i 	c #EAC155",
"j 	c #EAD16A",
"k 	c #EAEBB9",
"l 	c #CEEBA5",
"m 	c #636C33",
"n 	c #EAEA84",
"o 	c #8F8A4F",
"p 	c #ABEBD8",
"q 	c #8F874D",
"r 	c #EAD970",
"s 	c #EADA70",
"t 	c #EACB62",
"u 	c #96874B",
"v 	c #8F7B43",
"w 	c #E6B24B",
"x 	c #EACC63",
"y 	c #EAEBB6",
"z 	c #CEEBA3",
"A 	c #EAEB89",
"B 	c #D6EBEB",
"C 	c #EAEBEB",
"D 	c #8F854B",
"E 	c #EAD46C",
"F 	c #EACE66",
"G 	c #8F7F49",
"H 	c #8E7843",
"I 	c #EAB047",
"J 	c #E6C55E",
"K 	c #EAEBB3",
"L 	c #CEEBA1",
"M 	c #595224",
"N 	c #EAEBD6",
"O 	c #CDD06E",
"P 	c #8F8249",
"Q 	c #C2933A",
"R 	c #DFA541",
"S 	c #DCBC58",
"T 	c #EAE982",
"U 	c #8E7341",
"V 	c #E6AC45",
"W 	c #DCA23F",
"X 	c #D69938",
"Y 	c #EADD73",
"Z 	c #DFA945",
"` 	c #E3A643",
" .	c #DA9F3D",
"..	c #D69635",
"+.	c #EAEBD0",
"@.	c #EAE178",
"#.	c #EAE075",
"$.	c #E3AD49",
"%.	c #E6AD47",
"&.	c #D99C3A",
"*.	c #D19333",
"=.	c #EAEBB5",
"-.	c #EAD36A",
";.	c #E3A943",
">.	c #DC9F3D",
",.	c #D69638",
"'.	c #CF9031",
").	c #8D7341",
"!.	c #D69F3D",
"~.	c #D39533",
"{.	c #CD8A2C",
"].	c #8B703F",
"^.	c #CF902F",
"/.	c #C98529",
"(.	c #EAEBB2",
"_.	c #EAE179",
":.	c #CDB04F",
"<.	c #B67829",
"[.	c #CD872C",
"}.	c #CEAC49",
"|.	c #EAEBB1",
"1.	c #CEEBAC",
"2.	c #EAEBC0",
"3.	c #EADA73",
"4.	c #EAC55A",
"5.	c #8F7B45",
"6.	c #E1AC47",
"7.	c #8A6C3D",
"8.	c #CFAD4B",
"9.	c #EAEBAA",
"0.	c #CEEB9C",
"a.	c #CEEBAA",
"b.	c #EAD76F",
"c.	c #EAB751",
"d.	c #8F7843",
"e.	c #EAB249",
"f.	c #D69F3F",
"g.	c #C7852C",
"h.	c #CFB04B",
"i.	c #EAD069",
"j.	c #EAB64D",
"k.	c #C6963D",
"l.	c #EAB049",
"m.	c #B67B29",
"n.	c #CE8D2F",
"o.	c #D1B04B",
"p.	c #EAEBAC",
"q.	c #EAEBB7",
"r.	c #EACB63",
"s.	c #D19331",
"t.	c #E1C25B",
"u.	c #CEEBA2",
"v.	c #584F21",
"                                                ",
"              . . . . . . . . . .               ",
"            + @ # $ % & * = - ; > ,             ",
"          + ' ) ! ~ { ] ^ / ( _ : < ,           ",
"        + [ } | 1 2 3 4 5 6 7 8 9 0 a ,         ",
"      + b c d ^ e f 3 4 g 6 7 h i j k l m       ",
"    + [ c ! n o p q r s 5 t u p v w x y z m     ",
"  . ' } d A o B C B D E F G B C B H I J K L M   ",
"  . N | ^ O p C C C B P G B C C C p Q R S y .   ",
"  . } 1 T 1 q B C C C B B C C C B U V W X y .   ",
"  . ) 2 f 2 Y D B C C C C C C B H Z `  ...y .   ",
"  . +.3 3 @.#.g P B C C C C B H $.%.R &.*.=..   ",
"  . & 4 4 s r -.P B C C C C B H Z ;.>.,.'.=..   ",
"  . * 5 g 5 F G B C C C C C C B ).!.&.~.{.K .   ",
"  . = 6 6 6 G B C C C B B C C C B ]...^./.(..   ",
"  . - _.7 :.p C C C B H H B C C C p <.[.}.|..   ",
"  . 1.2.3.4.5.B C B H w 6.).B C B 7.{.8.9.0.M   ",
"    , a.: b.c.d.p H $.e.V f.].p 7.g.h.9.0.m     ",
"      , < 0 i.j.k.l.%.;.R  .X m.n.o.p.0.m       ",
"        , a q.r.V ` R >.&...s.{.h.p.0.m         ",
"          m l y t. .&.,.~.^.[.8.9.0.m           ",
"            m u.k q.y y =.=.(.|.0.m             ",
"              v.. . . . . . . . v.              ",
"                                                "};
