/* XPM */
static const char * CloseIns_xpm[] = {
"24 24 177 2",
"  	c #D1D5D1",
". 	c #D4D8D4",
"+ 	c #D5D9D5",
"@ 	c #D7DBD7",
"# 	c #D9DDD9",
"$ 	c #DCDFDC",
"% 	c #DEE1DE",
"& 	c #E0E2E0",
"* 	c #E2E4E2",
"= 	c #E3E5E3",
"- 	c #E4E6E4",
"; 	c #E3E6E3",
"> 	c #E2E5E2",
", 	c #E0E3E0",
"' 	c #D9DCD9",
") 	c #D3D7D3",
"! 	c #D1D5D1",
"~ 	c #D7DAD7",
"{ 	c #DADDDA",
"] 	c #DFE2DF",
"^ 	c #E4E7E4",
"/ 	c #E6E8E6",
"( 	c #E8EAE8",
"_ 	c #E7E9E7",
": 	c #DDE0DD",
"< 	c #DADEDA",
"[ 	c #D8DBD8",
"} 	c #D6D9D6",
"| 	c #E1E3E1",
"1 	c #E9EBE9",
"2 	c #EBECEB",
"3 	c #ECEDEC",
"4 	c #ECEEEC",
"5 	c #EAECEA",
"6 	c #E5E7E5",
"7 	c #DBDEDB",
"8 	c #EDEFED",
"9 	c #EEEFEE",
"0 	c #EAEBEA",
"a 	c #D2D6D2",
"b 	c #D0D4D0",
"c 	c #EBEDEB",
"d 	c #E4E5E4",
"e 	c #B1B1B1",
"f 	c #DCDCDC",
"g 	c #DCDEDC",
"h 	c #ADAEAD",
"i 	c #CBCDCB",
"j 	c #CED2CE",
"k 	c #CDD1CD",
"l 	c #EDEEED",
"m 	c #E3E4E3",
"n 	c #A8A9A8",
"o 	c #B5B5B5",
"p 	c #CECECE",
"q 	c #DDDFDD",
"r 	c #AAAAAA",
"s 	c #B0B0B0",
"t 	c #C2C3C3",
"u 	c #CFD1CF",
"v 	c #CFD3CF",
"w 	c #CCD0CC",
"x 	c #CBCFCB",
"y 	c #A9AAA9",
"z 	c #B7B7B7",
"A 	c #D2D2D2",
"B 	c #DADADA",
"C 	c #D5D6D5",
"D 	c #D9DAD9",
"E 	c #AEAEAE",
"F 	c #B8B8B8",
"G 	c #D3D4D3",
"H 	c #CCCDCC",
"I 	c #CDCFCD",
"J 	c #CCCFCC",
"K 	c #C9CDC9",
"L 	c #C8CCC8",
"M 	c #C7CBC7",
"N 	c #E1E4E1",
"O 	c #AFAFAF",
"P 	c #B9B9B9",
"Q 	c #D4D4D4",
"R 	c #E4E4E4",
"S 	c #E6E6E6",
"T 	c #DCDCDD",
"U 	c #CACACA",
"V 	c #C1C2C1",
"W 	c #C1C1C1",
"X 	c #D5D5D5",
"Y 	c #E2E2E2",
"Z 	c #E0E0E0",
"` 	c #DBDBDB",
" .	c #D4D6D4",
"..	c #C7CAC7",
"+.	c #C5C9C5",
"@.	c #E8E9E8",
"#.	c #C9C9C9",
"$.	c #D7D7D7",
"%.	c #E8E8E7",
"&.	c #EAEAEB",
"*.	c #ECECEC",
"=.	c #EAEAEA",
"-.	c #DFDFDF",
";.	c #E5E4E4",
">.	c #E8E8E8",
",.	c #E5E5E5",
"'.	c #D2D5D2",
").	c #C6CAC6",
"!.	c #C3C7C3",
"~.	c #C3C6C3",
"{.	c #EDEDED",
"].	c #EEEEEF",
"^.	c #EEEEEE",
"/.	c #E7E7E7",
"(.	c #D9DBD9",
"_.	c #C1C5C1",
":.	c #C0C4C0",
"<.	c #BFC3BF",
"[.	c #EDECEC",
"}.	c #EBEBEB",
"|.	c #E9E9E9",
"1.	c #DADCDA",
"2.	c #CACECA",
"3.	c #C2C5C2",
"4.	c #BEC1BE",
"5.	c #D4D6D5",
"6.	c #EAEBEB",
"7.	c #E3E3E3",
"8.	c #C4C8C4",
"9.	c #BCC0BC",
"0.	c #B1B2B1",
"a.	c #E1E1E1",
"b.	c #DEDEDE",
"c.	c #D0D2CF",
"d.	c #BEC2BE",
"e.	c #BABEBA",
"f.	c #DFE1DF",
"g.	c #A5A6A5",
"h.	c #B3B3B3",
"i.	c #D1D1D1",
"j.	c #DDDDDD",
"k.	c #D4D5D4",
"l.	c #C8C8C8",
"m.	c #C4C7C4",
"n.	c #BDC0BD",
"o.	c #B9BCB9",
"p.	c #A5A5A5",
"q.	c #C9CACA",
"r.	c #DCDCDB",
"s.	c #D0D0D0",
"t.	c #C8CAC8",
"u.	c #BBBFBB",
"v.	c #B8BBB8",
"w.	c #D5D8D5",
"x.	c #BABBBA",
"y.	c #D9D9D9",
"z.	c #D8D8D8",
"A.	c #BABDBA",
"B.	c #B7BBB7",
"C.	c #D8DCD8",
"D.	c #D3D5D3",
"E.	c #DADAD9",
"F.	c #D5D7D5",
"G.	c #DBDADB",
"H.	c #B6BAB6",
"I.	c #D4D7D4",
"J.	c #D1D4D1",
"K.	c #D6D8D6",
"L.	c #CED0CE",
"M.	c #CFD0CF",
"N.	c #C7C9C7",
"O.	c #D3D4D4",
"P.	c #CECFCE",
"Q.	c #B5B9B5",
"R.	c #CACDCA",
"S.	c #CCCECC",
"T.	c #C5C7C5",
". + @ # $ % & * = - - ; > , % $ ' @ + ) ! ! ! ! ",
"+ ~ { $ ] * ^ / ( ( ( _ / = , : < [ } ) ! ! ! ! ",
"~ { : | - _ 1 2 3 4 3 5 ( 6 * % 7 [ + ) ! ! ! ! ",
"' $ | 6 ( 5 4 8 / 9 8 4 0 / * 7 7 @ . a ! ! ! b ",
"7 ] - ( c 4 9 d e f 3 c 1 6 g h i + ) ! ! b j k ",
": * _ 5 l 9 m n o p d 1 _ q r s t u a ! v w x x ",
"] - 1 4 9 m y z A B C D % E F p G H I v J K L M ",
"N / 5 8 8 O P Q R S T U V W X Y Z ` B  .L ..+.+.",
"> _ c 8 @.#.$.%.&.*.=.S -.-.;.>.,.R Y '.).!.~.~.",
"= _ c 8 4 @.,.>.=.{.].^.{.2 =.>././.(.M !._.:.<.",
"= _ 5 4 4 2 / m S =.{.{.[.}.|././.1.2.).3.<.4.4.",
"* / 1 5 5 ( 6 5.Q R =.6.=.|./.,.7.w L 8.:.4.9.9.",
", - _ _ _ 6 q 0.U a./.>./.S R Y b.c...~.d.9.e.e.",
"f.N = - = g g.h.i.Z R ;.R 7.Y j.k.l.m._.n.e.o.o.",
"$ % ] ] % p.E q.B Z Y Y Y Z b.r.X s.s.t.u.o.v.v.",
"{ 7 $ 7 w.x.U $.` j.Z Y j.j.` y.z.y.y.t.A.v.B.B.",
"[ C.C.[ } D.X z.E.j.a.D F.G.D z.y.` u u.o.B.H.B.",
"} } } w.I.a J.k.z.b.K.J 2.L.k.$.B M.9.A.v.H.H.B.",
"I.. ) a ! ! b u $.D.L ..).!.N.O.P.u.A.v.H.Q.B.v.",
"a a ! ! ! v J R.S.).8.~.3.:.d.T.e.A.v.B.Q.H.B.o.",
"! ! ! ! v J L ).!.3.:.<.4.9.u.A.o.v.B.Q.Q.B.v.A.",
"! ! ! b w 2...8.3.<.4.9.u.A.o.v.B.H.Q.Q.B.v.A.u.",
"! ! ! j J K ).!.:.d.n.u.A.v.B.B.H.H.H.B.v.A.u.n.",
"! ! b j J K ).!.:.d.9.e.A.v.B.B.B.B.v.o.A.u.4.:."};
