/* XPM */
static const char * Error_xpm[] = {
"46 36 254 2",
"  	c #D1D5D1",
". 	c #841718",
"+ 	c #801718",
"@ 	c #7D1A1C",
"# 	c #DB2F30",
"$ 	c #D72F30",
"% 	c #C34142",
"& 	c #DA4D4F",
"* 	c #8B3334",
"= 	c #BA484A",
"- 	c #B64749",
"; 	c #8D3739",
"> 	c #B8484A",
", 	c #B44749",
"' 	c #B04648",
") 	c #B14749",
"! 	c #B14E4F",
"~ 	c #CA5D5E",
"{ 	c #C15C5D",
"] 	c #8B4344",
"^ 	c #924748",
"/ 	c #BC6768",
"( 	c #752225",
"_ 	c #742629",
": 	c #BE484B",
"< 	c #BC484B",
"[ 	c #8F3D3F",
"} 	c #924043",
"| 	c #692E30",
"1 	c #D76366",
"2 	c #9A474A",
"3 	c #C16063",
"4 	c #753B3D",
"5 	c #D4797D",
"6 	c #B66E70",
"7 	c #B07274",
"8 	c #674546",
"9 	c #B97F81",
"0 	c #5F4344",
"a 	c #70262A",
"b 	c #B4696D",
"c 	c #C4767B",
"d 	c #D28489",
"e 	c #B57478",
"f 	c #BB999B",
"g 	c #BA989A",
"h 	c #682E33",
"i 	c #C68287",
"j 	c #6D5355",
"k 	c #8B6F71",
"l 	c #615556",
"m 	c #A28E90",
"n 	c #524849",
"o 	c #B8A4A6",
"p 	c #B5A3A5",
"q 	c #633238",
"r 	c #623339",
"s 	c #B88B91",
"t 	c #554D4E",
"u 	c #BDB5B6",
"v 	c #593C41",
"w 	c #CDA5AC",
"x 	c #4F494A",
"y 	c #C7A4AB",
"z 	c #BEB4B6",
"A 	c #4C4849",
"B 	c #504C4D",
"C 	c #BBB3B5",
"D 	c #BFBBBC",
"E 	c #585254",
"F 	c #B2ACAE",
"G 	c #5F555A",
"H 	c #555354",
"I 	c #C3C1C2",
"J 	c #B6B4B5",
"K 	c #B5B3B4",
"L 	c #4D4F51",
"M 	c #A6A8AA",
"N 	c #4E4F50",
"O 	c #777879",
"P 	c #8F9091",
"Q 	c #AFB0B1",
"R 	c #495055",
"S 	c #4A5054",
"T 	c #6A7176",
"U 	c #7A8084",
"V 	c #7D1111",
"W 	c #670E0E",
"X 	c #A41717",
"Y 	c #9F1616",
"Z 	c #9D1616",
"` 	c #961515",
" .	c #901414",
"..	c #891313",
"+.	c #881313",
"@.	c #7B1111",
"#.	c #7A1111",
"$.	c #791111",
"%.	c #6B0F0F",
"&.	c #660E0E",
"*.	c #650E0E",
"=.	c #640E0E",
"-.	c #D81F1F",
";.	c #D31E1E",
">.	c #D01E1E",
",.	c #CE1D1D",
"'.	c #CB1D1D",
").	c #C91D1D",
"!.	c #C41C1C",
"~.	c #BF1B1B",
"{.	c #BD1B1B",
"].	c #BC1B1B",
"^.	c #BB1B1B",
"/.	c #B61A1A",
"(.	c #B41A1A",
"_.	c #B01919",
":.	c #AD1919",
"<.	c #A91818",
"[.	c #A81818",
"}.	c #A21717",
"|.	c #A11717",
"1.	c #9C1616",
"2.	c #9A1616",
"3.	c #991616",
"4.	c #941515",
"5.	c #931515",
"6.	c #8E1414",
"7.	c #8D1414",
"8.	c #8C1414",
"9.	c #8B1414",
"0.	c #871313",
"a.	c #861313",
"b.	c #801212",
"c.	c #7F1212",
"d.	c #7E1212",
"e.	c #781111",
"f.	c #771111",
"g.	c #761111",
"h.	c #711010",
"i.	c #6F1010",
"j.	c #6A0F0F",
"k.	c #690F0F",
"l.	c #680F0F",
"m.	c #610E0E",
"n.	c #E02121",
"o.	c #DD2020",
"p.	c #DA2020",
"q.	c #D51F1F",
"r.	c #D21F1F",
"s.	c #CF1E1E",
"t.	c #CC1E1E",
"u.	c #C81D1D",
"v.	c #C71D1D",
"w.	c #C11C1C",
"x.	c #BE1C1C",
"y.	c #BA1B1B",
"z.	c #B81B1B",
"A.	c #B31A1A",
"B.	c #B11A1A",
"C.	c #AB1919",
"D.	c #AA1919",
"E.	c #A61818",
"F.	c #A51818",
"G.	c #9F1717",
"H.	c #981616",
"I.	c #971616",
"J.	c #911515",
"K.	c #8A1414",
"L.	c #891414",
"M.	c #821313",
"N.	c #7C1212",
"O.	c #751111",
"P.	c #670F0F",
"Q.	c #A71919",
"R.	c #8A1818",
"S.	c #961C1C",
"T.	c #931C1C",
"U.	c #CF3232",
"V.	c #CB3232",
"W.	c #C53232",
"X.	c #AE2C2C",
"Y.	c #AA2C2C",
"Z.	c #BE3333",
"`.	c #A52D2D",
" +	c #A32D2D",
".+	c #6A1D1D",
"++	c #B33333",
"@+	c #9F2E2E",
"#+	c #8A2828",
"$+	c #9B2E2E",
"%+	c #963030",
"&+	c #923131",
"*+	c #C95353",
"=+	c #BA4E4E",
"-+	c #7A3333",
";+	c #733333",
">+	c #7E3B3B",
",+	c #DB7171",
"'+	c #DA7171",
")+	c #D87171",
"!+	c #D67171",
"~+	c #D47070",
"{+	c #D16F6F",
"]+	c #D27070",
"^+	c #884A4A",
"/+	c #C66E6E",
"(+	c #C46E6E",
"_+	c #C36E6E",
":+	c #C16D6D",
"<+	c #BF6D6D",
"[+	c #BD6D6D",
"}+	c #BB6C6C",
"|+	c #BA6C6C",
"1+	c #B06B6B",
"2+	c #9C6868",
"3+	c #E09B9B",
"4+	c #E9AAAA",
"5+	c #E8AAAA",
"6+	c #E7A9A9",
"7+	c #E6A9A9",
"8+	c #E5A9A9",
"9+	c #E4A9A9",
"0+	c #E3A9A9",
"a+	c #CB9898",
"b+	c #DDA8A8",
"c+	c #DCA8A8",
"d+	c #DBA8A8",
"e+	c #D9A7A7",
"f+	c #D8A7A7",
"g+	c #D7A7A7",
"h+	c #D6A7A7",
"i+	c #C3A4A4",
"j+	c #D7C2C2",
"k+	c #E1D1D1",
"l+	c #F5EFEF",
"m+	c #FFFFFF",
"n+	c #D0D0D0",
"o+	c #CACACA",
"p+	c #C9C9C9",
"q+	c #C8C8C8",
"r+	c #B8B8B8",
"s+	c #B0B0B0",
"t+	c #A8A8A8",
"u+	c #A0A0A0",
"v+	c #989898",
"w+	c #909090",
"x+	c #888888",
"y+	c #787878",
"z+	c #707070",
"A+	c #5F5F5F",
"B+	c #575757",
"C+	c #4F4F4F",
"D+	c #4E4E4E",
"E+	c #4B4B4B",
"                            w w 5 5 5 5 5 1 & 1 5 5 5 5 d w z                               ",
"                  u 9 { U.U.n.n.n.n.n.n.n.n.n.n.n.n.n.n.n.n.n.n.# ~ f                       ",
"              D / V.o.o.o.o.o.o.o.o.o.o.o.o.o.o.o.o.o.o.o.o.o.o.o.o.o.$ g                   ",
"            o % p.p.p.p.;.!.p.p.p.p.p.p.p.p.p.p.p.p.p.p.p.p.p.].p.p.p.p.p.6                 ",
"          C W.-.-.-.-.>.f.l.w.-.-.-.-.-.-.-.-.-.-.-.-.-.-.-.7.m.C.-.-.-.-.-.2 M             ",
"          =+q.q.q.q.,.g.m.^+l.~.q.q.q.q.q.q.q.q.q.q.q.q.q.8.m.>+m.<.q.q.q.q.q.E Q           ",
"        p Z.r.r.r.'.g.m.i+m+2+l.{.r.r.r.r.r.r.r.r.r.r.r.9.m.i+m+2+m.[.r.r.r.r.} B+          ",
"        7 s.s.s.u.O.m.i+m+m+m+2+P.y.s.s.s.s.s.s.s.s.s.K.m.i+m+m+m+2+m.E.s.s.s.s.N P         ",
"        ! t.t.t.D.m.i+m+m+m+m+m+2+P.z.t.t.t.t.t.t.t.L.m.i+m+m+m+m+m+2+L.t.t.t.t.H A+        ",
"        ++).).).).*+m+m+m+m+m+m+m+2+P./.).).).).).+.m.i+m+m+m+m+m+m+3+).).).).).l C+        ",
"      y v.v.v.v.v.v.,+m+m+m+m+m+m+m+2+W (.v.v.v.0.m.i+m+m+m+m+m+m+4+v.v.v.v.v.v.j C+s+      ",
"      i !.!.!.!.!.!.!.'+m+m+m+m+m+m+m+2+W B.!.a.m.i+m+m+m+m+m+m+5+!.!.!.!.!.!.!.[ C+w+      ",
"      c w.w.w.w.w.w.w.w.)+m+m+m+m+m+m+m+2+W c.m.i+m+m+m+m+m+m+6+w.w.w.w.w.w.w.w.] C+x+      ",
"      3 x.x.x.x.x.x.x.x.x.!+m+m+m+m+m+m+m+2+m.i+m+m+m+m+m+m+7+x.x.x.x.x.x.x.x.x.X.C+z+      ",
"      : ^.^.^.^.^.^.^.^.^.^.~+m+m+m+m+m+m+m+j+m+m+m+m+m+m+8+^.^.^.^.^.^.^.^.^.^.Y.C+z+      ",
"      < z.z.z.z.z.z.z.z.z.z.z.]+m+m+m+m+m+m+m+m+m+m+m+m+9+z.z.z.z.z.z.z.z.z.z.z.`.C+C+      ",
"      = /./././././././././././.{+m+m+m+m+m+m+m+m+m+m+0+/./././././././././././. +C+C+      ",
"      > A.A.A.A.A.A.A.A.A.A.A.A.A.1+m+m+m+m+m+m+m+m+i+X A.A.A.A.A.A.A.A.A.A.A.A.@+C+C+      ",
"      - _._._._._._._._._._._._.c.>+l+m+m+m+m+m+m+m+2+&.|._._._._._._._._._._._.$+C+C+      ",
"      , :.:.:.:.:.:.:.:.:.:.:.d.>+l+m+m+m+m+m+m+m+m+m+2+*.Y :.:.:.:.:.:.:.:.:.:.%+C+C+      ",
"      ) D.D.D.D.D.D.D.D.D.D.N.>+l+m+m+m+m+m+m+m+m+m+m+m+2+*.Z D.D.D.D.D.D.D.D.D.&+C+C+      ",
"      ' [.[.[.[.[.[.[.[.[.@.>+l+m+m+m+m+m+m+m+m+m+m+m+m+m+2+*.2.[.[.[.[.[.[.[.[.Q.C+C+      ",
"      b F.F.F.F.F.F.F.F.#.>+l+m+m+m+m+m+m+b+/+m+m+m+m+m+m+m+2+*.H.F.F.F.F.F.F.F.F.C+C+      ",
"      e }.}.}.}.}.}.}.$.>+l+m+m+m+m+m+m+c+}.}.(+m+m+m+m+m+m+m+2+*.` }.}.}.}.}.}.4 C+A+      ",
"      s G.G.G.G.G.G.e.>+l+m+m+m+m+m+m+d+G.G.G.G._+m+m+m+m+m+m+m+2+*.4.G.G.G.G.G.8 C+z+      ",
"      F S.1.1.1.1.f.>+l+m+m+m+m+m+m+e+1.1.1.1.1.1.:+m+m+m+m+m+m+m+2+=.J.1.1.1.1.t C+y+      ",
"        T.3.3.3.9.m.>+l+m+m+m+m+m+f+3.3.3.3.3.3.3.3.<+m+m+m+m+m+m+k+m.i.3.3.3.3.B C+w+      ",
"        ^ I.I.I.I.M.m.>+l+m+m+m+g+I.I.I.I.I.I.I.I.I.I.[+m+m+m+m+k+.+%.5.I.I.I.-+E+C+u+      ",
"        m 4.4.4.4.4.b.m.>+l+m+h+4.4.4.4.4.4.4.4.4.4.4.4.}+m+m+k+.+j. .4.4.4.4.0 C+C+r+      ",
"          ; J.J.J.J.J.c.m.>+a+J.J.J.J.J.J.J.J.J.J.J.J.J.J.|+k+.+j.6.J.J.J.J.;+E+C+A+        ",
"          J #+6.6.6.6.6.V h.6.6.6.6.6.6.6.6.6.6.6.6.6.6.6.6.V k.9.6.6.6.6.R.n C+C+u+        ",
"            K * 9.9.9.9.9.9.9.9.9.9.9.9.9.9.9.9.9.9.9.9.9.9.9.9.9.9.9.9.9.x C+C+y+          ",
"                k . .................................................._ E+C+C+z+            ",
"                  M G v q a | | + a.a.a.a.a.a.a.a.a.a.a.@ ( ( h r A D+C+C+B+w+              ",
"                      M U T B+C+C+C+C+C+C+C+C+C+C+C+C+C+L L R R S C+z+O v+                  ",
"                                  s+s+s+s+w+w+w+w+w+w+t+s+s+s+r+                            "};
